<?xml version="1.0" encoding="UTF-8"?>
<svg width="16px" height="15px" viewBox="0 0 16 15" version="1.1" xmlns="http://www.w3.org/2000/svg" xmlns:xlink="http://www.w3.org/1999/xlink">
    <!-- Generator: Sketch 45.2 (43514) - http://www.bohemiancoding.com/sketch -->
    <title>icon-search-dark</title>
    <desc>Created with Sketch.</desc>
    <defs></defs>
    <g id="Page-1" stroke="none" stroke-width="1" fill="none" fill-rule="evenodd">
        <g id="Shareboxit_Slides_Menu" transform="translate(-840.000000, -759.000000)" fill="#253238">
            <g id="header" transform="translate(0.000000, 736.000000)">
                <path d="M855.113458,35.6171875 C855.295514,35.7994801 855.295514,35.9817699 855.113458,36.1640625 L853.435955,37.8828125 C853.357931,37.9609379 853.253901,38 853.123862,38 C853.01983,38 852.928803,37.9609379 852.85078,37.8828125 L849.573797,34.5234375 C848.585495,35.1223988 847.545194,35.421875 846.452861,35.421875 C844.762345,35.421875 843.305923,34.8164123 842.08355,33.6054688 C840.861177,32.3945252 840.25,30.9296961 840.25,29.2109375 C840.25,27.4921789 840.861177,26.0273498 842.08355,24.8164062 C843.305923,23.6054627 844.762345,23 846.452861,23 C848.143376,23 849.593297,23.6054627 850.802665,24.8164062 C852.012034,26.0273498 852.616709,27.4921789 852.616709,29.2109375 C852.616709,30.304693 852.34363,31.3203078 851.797464,32.2578125 L855.113458,35.6171875 Z M846.452861,25.421875 C845.412543,25.421875 844.521785,25.792965 843.780559,26.5351562 C843.039333,27.2773475 842.668726,28.1692656 842.668726,29.2109375 C842.668726,30.2526094 843.039333,31.1445275 843.780559,31.8867188 C844.521785,32.62891 845.412543,33 846.452861,33 C847.493178,33 848.377434,32.62891 849.105656,31.8867188 C849.833878,31.1445275 850.197984,30.2526094 850.197984,29.2109375 C850.197984,28.1692656 849.833878,27.2773475 849.105656,26.5351562 C848.377434,25.792965 847.493178,25.421875 846.452861,25.421875 Z" id="icon-search-dark"></path>
            </g>
        </g>
    </g>
</svg>