<svg xmlns="http://www.w3.org/2000/svg" width="19" height="19" viewBox="0 0 19 19">
    <path fill="#FFF" fill-rule="evenodd" d="M18.714 14.93c0-.09 0-.179-.038-.268-.09-.269-.716-.55-.972-.678-.728-.409-1.47-.805-2.186-1.227-.332-.205-.741-.588-1.138-.588-.78 0-1.917 2.314-2.607 2.314-.346 0-.793-.32-1.1-.499-2.327-1.291-3.937-2.902-5.229-5.229-.179-.306-.498-.754-.498-1.099 0-.69 2.314-1.828 2.314-2.608 0-.396-.384-.805-.588-1.138-.422-.716-.819-1.457-1.228-2.186-.127-.255-.409-.882-.677-.971-.09-.039-.18-.039-.269-.039-.46 0-1.355.205-1.777.397-.626.268-1.035.984-1.355 1.56-.409.753-.652 1.52-.652 2.377 0 1.189.486 2.263.882 3.35.282.78.627 1.534 1.061 2.237C4 12.808 6.621 15.429 8.794 16.77c.703.435 1.457.78 2.237 1.061 1.087.396 2.16.882 3.35.882.856 0 1.623-.243 2.377-.652.576-.32 1.292-.728 1.56-1.355.192-.422.396-1.317.396-1.777z"/>
</svg>
