<svg xmlns="http://www.w3.org/2000/svg" width="19" height="15" viewBox="0 0 19 15">
    <path fill="#FFF" fill-rule="evenodd" d="M18.491 2.377a7.655 7.655 0 0 1-2.124.547A3.555 3.555 0 0 0 17.989.977c-.709.404-1.508.7-2.342.853A3.758 3.758 0 0 0 12.952.714c-2.045 0-3.69 1.586-3.69 3.533 0 .274.035.547.092.81-3.06-.154-5.79-1.554-7.607-3.697a3.394 3.394 0 0 0-.502 1.782c0 1.225.65 2.308 1.645 2.943a3.84 3.84 0 0 1-1.668-.449v.044c0 1.717 1.268 3.139 2.958 3.467-.308.077-.64.12-.97.12a4.85 4.85 0 0 1-.697-.054c.468 1.4 1.827 2.417 3.449 2.45a7.598 7.598 0 0 1-4.58 1.51c-.308 0-.594-.012-.89-.045a10.762 10.762 0 0 0 5.664 1.586c6.784 0 10.496-5.381 10.496-10.051 0-.153 0-.307-.011-.46a7.757 7.757 0 0 0 1.85-1.826z" opacity=".8"/>
</svg>
