<svg xmlns="http://www.w3.org/2000/svg" width="20" height="16" viewBox="0 0 20 16">
    <path fill="#FFF" fill-rule="evenodd" d="M14.286 8.214a.736.736 0 0 0-.335-.633l-5.714-3.75a.677.677 0 0 0-.726-.023.766.766 0 0 0-.368.656v7.5c0 .27.145.528.368.657a.731.731 0 0 0 .346.093.635.635 0 0 0 .38-.117l5.714-3.75a.736.736 0 0 0 .335-.633zm5.714 0c0 1.676 0 3.457-.357 5.086-.234 1.149-1.105 1.992-2.154 2.121-2.478.293-4.989.293-7.489.293s-5.011 0-7.489-.293c-1.049-.129-1.92-.972-2.165-2.12C0 11.67 0 9.89 0 8.213c0-1.676 0-3.457.357-5.086.246-1.148 1.105-1.992 2.154-2.12C4.99.713 7.5.713 10 .713s5.011 0 7.489.293c1.049.13 1.92.973 2.165 2.121C20 4.758 20 6.538 20 8.214z" opacity=".8"/>
</svg>
